{
	"additionalNodes": [],
	"additionalParameters": {
		"root": {
			"height": 109,
			"width": 253
		}
	},
	"inputs": [],
	"outputs": [],
	"properties": {
		"26oQMQ7ihREtw55aJRNoJt3ofWQD1dhm": {
			"height": 94,
			"title": "store",
			"width": 302,
			"x": 2046,
			"y": 685
		},
		"3gvMxdZ09Mar6K0OOxRMNy2duTrwOY75": {
			"height": 94,
			"title": "store",
			"width": 307,
			"x": 1526,
			"y": -606
		},
		"63HhznRBNyFgXkKwyP7G32jSgv77EMIP": {
			"height": 90,
			"title": "Common.move",
			"width": 382,
			"x": 2064,
			"y": 505
		},
		"6Hj1f6Bx352f8neJ9iKP9h1ScGKFjFDh": {
			"height": 106,
			"title": "roleSplit",
			"width": 238,
			"x": 1243,
			"y": 117
		},
		"6OjnMk9Igrl11MecgLbIqUofYV8fhVPN": {
			"height": 70,
			"title": "roleSplit",
			"width": 202,
			"x": 1790,
			"y": 502
		},
		"7bRmxLTB09dmONeRpqaHIBw7nTXU75jY": {
			"height": 70,
			"title": "parallel",
			"width": 202,
			"x": 369,
			"y": 26
		},
		"8WukOBidiDfXdunFbbGMT86uyLnYLn5A": {
			"height": 90,
			"title": "Common.move",
			"width": 300,
			"x": 1927,
			"y": 163
		},
		"Aqbzn47o7idkzVkWCFGmiSqRTGv9kIDQ": {
			"height": 54,
			"title": "success",
			"width": 132,
			"x": 1853,
			"y": 126
		},
		"CbWZ6U0D4jRTpCBX8OzVBaO2MehQ7UAd": {
			"height": 60,
			"title": "repeat",
			"width": 131,
			"x": 1569,
			"y": 718
		},
		"DAoYJ64v4ymcB3UU34k3PU7vB1FjlZB7": {
			"height": 94,
			"title": "store",
			"width": 302,
			"x": 1518,
			"y": -783
		},
		"DXCOcd1lPwZirF0oa5YKCwpYMYMZHt9q": {
			"height": 94,
			"title": "store",
			"width": 302,
			"x": 1258,
			"y": -145
		},
		"G30H6hzWxCt25HstNloOzGhJdmylvU0d": {
			"height": 54,
			"title": "nota_common.manualMissionEnd",
			"width": 296,
			"x": 1585,
			"y": 652
		},
		"HM1uNeSEfbk71NI0r8yQB7WCFpP4XN6f": {
			"height": 94,
			"title": "store",
			"width": 302,
			"x": 1541,
			"y": -695
		},
		"KCbMZeN78xZqeuZ3tTOobYwzATPeyTNl": {
			"height": 94,
			"title": "store",
			"width": 282,
			"x": 1262,
			"y": -64
		},
		"LiVrV4bPGfjOKF7okKRMtSe0ju4k2wm2": {
			"height": 54,
			"title": "success",
			"width": 132,
			"x": 2147,
			"y": 453
		},
		"NOuJuwz6CUmLEajUVacnTNrba3Ncb1JD": {
			"height": 60,
			"title": "Hover",
			"width": 163,
			"x": 816,
			"y": 67
		},
		"PX7zfgkqEA6FBrO8hQzrnqz8kaCdlgWU": {
			"height": 94,
			"title": "store",
			"width": 426,
			"x": 1523,
			"y": -445
		},
		"T2goONC3NFSPjRZzpc5C5eEJastZjFm6": {
			"height": 118,
			"title": "Load all warriors",
			"width": 832,
			"x": 1208,
			"y": 264
		},
		"UG8Lu5yeREReiCA1WexME6t2nCzZF3pR": {
			"height": 94,
			"title": "store",
			"width": 426,
			"x": 1526,
			"y": -521
		},
		"Up32HnnE7O0vDi52HiXswhwGHPmpPXC8": {
			"height": 60,
			"title": "sequence",
			"width": 143,
			"x": 837,
			"y": -471
		},
		"WgCihVOq1ShQoTyv6SF7wId52YTZHAhs": {
			"height": 54,
			"title": "success",
			"width": 132,
			"x": 2106,
			"y": 409
		},
		"ZdsOitJetbfAOqk28hF6vdp61nr7XBjy": {
			"height": 94,
			"title": "store",
			"width": 268,
			"x": 1494,
			"y": -344
		},
		"blvDb0OVh2pq58Mf0KAY5C5YiZxMDQPT": {
			"height": 88,
			"title": "Common.move",
			"width": 485,
			"x": 1893,
			"y": 67
		},
		"ghLigvqWxPCUPN0SM35nKPWCXVgnlJDs": {
			"height": 94,
			"title": "store",
			"width": 282,
			"x": 1264,
			"y": 11
		},
		"jIaslQ5XyGg47F1uDBJ4SomzpypD1J7C": {
			"height": 59,
			"title": "Hillls",
			"width": 143,
			"x": 1047,
			"y": -579
		},
		"ljE2HBSKw59FgFDwXtSgfeSF4aEdNRGm": {
			"height": 57,
			"title": "Peewees",
			"width": 165,
			"x": 1037,
			"y": -344
		},
		"qYnn4sWQCsnnnO77JnrvmFtypbn4YttZ": {
			"height": 92,
			"title": "all peewees to empty hills",
			"width": 349,
			"x": 1531,
			"y": -243
		},
		"sQechBLIGzbfrFh93lrCgBDkDN2u4MVn": {
			"height": 60,
			"title": "Finish",
			"width": 143,
			"x": 1345,
			"y": 520
		},
		"seSUXY2bnuIwqfnYlNVojfCwYew9qAaQ": {
			"height": 92,
			"title": "Rush the enemy",
			"width": 773,
			"x": 1204,
			"y": 422
		}
	},
	"roles": [ {
		"categories": [ "nota_napr_ctp2.hover" ],
		"name": "hov"
	}, {
		"categories": [ "nota_napr_ctp2.peewee" ],
		"name": "peew"
	}, {
		"categories": [ "nota_napr_ctp2.warriors" ],
		"name": "warr"
	}, {
		"categories": [],
		"name": "Role 3"
	} ],
	"root": {
		"children": [ {
			"children": [ {
				"children": [ {
					"children": [],
					"id": "DAoYJ64v4ymcB3UU34k3PU7vB1FjlZB7",
					"nodeType": "luaCommand",
					"parameters": [ {
						"name": "var",
						"value": "info"
					}, {
						"name": "value",
						"value": "core.MissionInfo()"
					}, {
						"name": "scriptName",
						"value": "store"
					} ],
					"scriptName": "store"
				}, {
					"children": [],
					"id": "HM1uNeSEfbk71NI0r8yQB7WCFpP4XN6f",
					"nodeType": "luaCommand",
					"parameters": [ {
						"name": "var",
						"value": "hillSize"
					}, {
						"name": "value",
						"value": "140"
					}, {
						"name": "scriptName",
						"value": "store"
					} ],
					"scriptName": "store"
				}, {
					"children": [],
					"id": "3gvMxdZ09Mar6K0OOxRMNy2duTrwOY75",
					"nodeType": "luaCommand",
					"parameters": [ {
						"name": "var",
						"value": "allHills"
					}, {
						"name": "value",
						"value": "GetAllHills(info.areaHeight, hillSize)"
					}, {
						"name": "scriptName",
						"value": "store"
					} ],
					"scriptName": "store"
				}, {
					"children": [],
					"id": "UG8Lu5yeREReiCA1WexME6t2nCzZF3pR",
					"nodeType": "luaCommand",
					"parameters": [ {
						"name": "var",
						"value": "occupiedHills"
					}, {
						"name": "value",
						"value": "GetOccupiedHills(allHills,info.enemyPositions, hillSize)"
					}, {
						"name": "scriptName",
						"value": "store"
					} ],
					"scriptName": "store"
				}, {
					"children": [],
					"id": "PX7zfgkqEA6FBrO8hQzrnqz8kaCdlgWU",
					"nodeType": "luaCommand",
					"parameters": [ {
						"name": "var",
						"value": "emptyHills"
					}, {
						"name": "value",
						"value": "RemoveValue(allHills, occupiedHills)"
					}, {
						"name": "scriptName",
						"value": "store"
					} ],
					"scriptName": "store"
				} ],
				"id": "jIaslQ5XyGg47F1uDBJ4SomzpypD1J7C",
				"nodeType": "sequence",
				"parameters": []
			}, {
				"children": [ {
					"children": [],
					"id": "ZdsOitJetbfAOqk28hF6vdp61nr7XBjy",
					"nodeType": "luaCommand",
					"parameters": [ {
						"name": "var",
						"value": "peewees"
					}, {
						"name": "value",
						"value": "GetUnitsWithName(\"armpw\")"
					}, {
						"name": "scriptName",
						"value": "store"
					} ],
					"scriptName": "store"
				}, {
					"children": [],
					"id": "qYnn4sWQCsnnnO77JnrvmFtypbn4YttZ",
					"nodeType": "luaCommand",
					"parameters": [ {
						"name": "unitIDsToSend",
						"value": "peewees"
					}, {
						"name": "positions",
						"value": "emptyHills"
					}, {
						"name": "scriptName",
						"value": "nota_napr_ctp2.SendOneUnitToEachPosition"
					} ],
					"scriptName": "nota_napr_ctp2.SendOneUnitToEachPosition"
				} ],
				"id": "ljE2HBSKw59FgFDwXtSgfeSF4aEdNRGm",
				"nodeType": "sequence",
				"parameters": []
			} ],
			"id": "Up32HnnE7O0vDi52HiXswhwGHPmpPXC8",
			"nodeType": "sequence",
			"parameters": []
		}, {
			"children": [ {
				"children": [],
				"id": "DXCOcd1lPwZirF0oa5YKCwpYMYMZHt9q",
				"nodeType": "luaCommand",
				"parameters": [ {
					"name": "var",
					"value": "gatherSpot"
				}, {
					"name": "value",
					"value": "{x = 520, z = 500}"
				}, {
					"name": "scriptName",
					"value": "store"
				} ],
				"scriptName": "store"
			}, {
				"children": [],
				"id": "KCbMZeN78xZqeuZ3tTOobYwzATPeyTNl",
				"nodeType": "luaCommand",
				"parameters": [ {
					"name": "var",
					"value": "warrs"
				}, {
					"name": "value",
					"value": "GetUnitsWithName(\"armwar\")"
				}, {
					"name": "scriptName",
					"value": "store"
				} ],
				"scriptName": "store"
			}, {
				"children": [],
				"id": "ghLigvqWxPCUPN0SM35nKPWCXVgnlJDs",
				"nodeType": "luaCommand",
				"parameters": [ {
					"name": "var",
					"value": "hover"
				}, {
					"name": "value",
					"value": "GetUnitsWithName(\"armthovr\")"
				}, {
					"name": "scriptName",
					"value": "store"
				} ],
				"scriptName": "store"
			}, {
				"children": [ {
					"children": [],
					"id": "blvDb0OVh2pq58Mf0KAY5C5YiZxMDQPT",
					"nodeType": "luaCommand",
					"parameters": [ {
						"name": "pos",
						"value": "{x =gatherSpot.x -100, z= gatherSpot.z}"
					}, {
						"name": "fight",
						"value": "false"
					}, {
						"name": "scriptName",
						"value": "Common.move"
					} ],
					"scriptName": "Common.move"
				}, {
					"children": [],
					"id": "Aqbzn47o7idkzVkWCFGmiSqRTGv9kIDQ",
					"nodeType": "success",
					"parameters": []
				}, {
					"children": [],
					"id": "8WukOBidiDfXdunFbbGMT86uyLnYLn5A",
					"nodeType": "luaCommand",
					"parameters": [ {
						"name": "pos",
						"value": "gatherSpot"
					}, {
						"name": "fight",
						"value": "false"
					}, {
						"name": "scriptName",
						"value": "Common.move"
					} ],
					"scriptName": "Common.move"
				} ],
				"id": "6Hj1f6Bx352f8neJ9iKP9h1ScGKFjFDh",
				"nodeType": "roleSplit",
				"parameters": [ {
					"name": "mode",
					"value": "all-success"
				} ]
			}, {
				"children": [],
				"id": "T2goONC3NFSPjRZzpc5C5eEJastZjFm6",
				"nodeType": "luaCommand",
				"parameters": [ {
					"name": "transporterID",
					"value": "hover[1]"
				}, {
					"name": "loadingArea",
					"value": "{centerX = gatherSpot.x,centerY = 128, centerZ =  gatherSpot.z, radius = 150}"
				}, {
					"name": "primaryUnitIDsToload",
					"value": "warrs"
				}, {
					"name": "scriptName",
					"value": "nota_napr_ctp2.LoadUnitsFromArea"
				} ],
				"scriptName": "nota_napr_ctp2.LoadUnitsFromArea"
			}, {
				"children": [],
				"id": "seSUXY2bnuIwqfnYlNVojfCwYew9qAaQ",
				"nodeType": "luaCommand",
				"parameters": [ {
					"name": "transporterID",
					"value": "hover[1]"
				}, {
					"name": "unLoadingArea",
					"value": "{centerX = occupiedHills[1].x,centerY = occupiedHills[1].y, centerZ = occupiedHills[1].z, radius = 10}"
				}, {
					"name": "scriptName",
					"value": "nota_napr_ctp2.UnloadAllUnitsToArea"
				} ],
				"scriptName": "nota_napr_ctp2.UnloadAllUnitsToArea"
			}, {
				"children": [ {
					"children": [ {
						"children": [],
						"id": "WgCihVOq1ShQoTyv6SF7wId52YTZHAhs",
						"nodeType": "success",
						"parameters": []
					}, {
						"children": [],
						"id": "LiVrV4bPGfjOKF7okKRMtSe0ju4k2wm2",
						"nodeType": "success",
						"parameters": []
					}, {
						"children": [],
						"id": "63HhznRBNyFgXkKwyP7G32jSgv77EMIP",
						"nodeType": "luaCommand",
						"parameters": [ {
							"name": "pos",
							"value": "{x = occupiedHills[1].x, z = occupiedHills[1].z}"
						}, {
							"name": "fight",
							"value": "true"
						}, {
							"name": "scriptName",
							"value": "Common.move"
						} ],
						"scriptName": "Common.move"
					} ],
					"id": "6OjnMk9Igrl11MecgLbIqUofYV8fhVPN",
					"nodeType": "roleSplit",
					"parameters": [ {
						"name": "mode",
						"value": "all-success"
					} ]
				}, {
					"children": [],
					"id": "G30H6hzWxCt25HstNloOzGhJdmylvU0d",
					"nodeType": "luaCommand",
					"parameters": [ {
						"name": "scriptName",
						"value": "nota_common.manualMissionEnd"
					} ],
					"scriptName": "nota_common.manualMissionEnd"
				}, {
					"children": [ {
						"children": [],
						"id": "26oQMQ7ihREtw55aJRNoJt3ofWQD1dhm",
						"nodeType": "luaCommand",
						"parameters": [ {
							"name": "var",
							"value": "info2"
						}, {
							"name": "value",
							"value": "core.MissionInfo()"
						}, {
							"name": "scriptName",
							"value": "store"
						} ],
						"scriptName": "store"
					} ],
					"id": "CbWZ6U0D4jRTpCBX8OzVBaO2MehQ7UAd",
					"nodeType": "repeat",
					"parameters": []
				} ],
				"id": "sQechBLIGzbfrFh93lrCgBDkDN2u4MVn",
				"nodeType": "sequence",
				"parameters": []
			} ],
			"id": "NOuJuwz6CUmLEajUVacnTNrba3Ncb1JD",
			"nodeType": "sequence",
			"parameters": []
		} ],
		"id": "7bRmxLTB09dmONeRpqaHIBw7nTXU75jY",
		"nodeType": "parallel",
		"parameters": [ {
			"name": "mode",
			"value": "all-success"
		} ]
	}
}